-------------------------------------------------------------------------------
Test set: com.sg.superherosighting.dao.HeroOrganizationBridgeDaoTest
-------------------------------------------------------------------------------
Tests run: 1, Failures: 0, Errors: 0, Skipped: 0, Time elapsed: 1.516 sec
