-------------------------------------------------------------------------------
Test set: com.sg.superherosighting.dao.PowerDaoTest
-------------------------------------------------------------------------------
Tests run: 3, Failures: 0, Errors: 0, Skipped: 0, Time elapsed: 0.459 sec
